{
  "convertHtml": {
    "ignoreUrls": [
      "/build"
    ],
    "path": "/Users/dominic/Git/connect-uni-royal-hollway/build",
    "relativePaths": true
  },
  "customRubyPath": null,
  "customTodos": null,
  "debug": false,
  "domain": null,
  "followLeader": true,
  "ignoreDir": [
    "build",
    "archive",
    "build/archive/content",
    "build/node_modules"
  ],
  "less": {
    "lineNumbers": false,
    "sourceMap": false
  },
  "lintScripts": false,
  "modelSource": null,
  "optimiseImages": true,
  "password": null,
  "preprocessorLocations": [
    "assets/less"
  ],
  "preprocessorScriptOutput": null,
  "preprocessorStyleOutput": "assets/css",
  "projectDescription": "Royal Holloway templates for RMP Connect clients",
  "projectName": "Royal Holloway Connect Templates V.0.1",
  "publishedId": null,
  "remoteDebugPort": 0,
  "routes": null,
  "serverHostname": null,
  "serverPort": null,
  "simpleModeFileTypes": null,
  "simpleModePartnerServer": null,
  "templateDefaultLayout": "layout",
  "templateDefaultPage": "index",
  "templateDirectory": "templates",
  "type": "mixture",
  "useCompass": false
}